Client2_11_27_2016_22_31_44.8359217.txt
-----------------------------
test1
passed
This test always Passes
-----------------------------
test2
failed
Exception thrown
-----------------------------
test3
failed
This test always Fails
-----------------------------
